<svg id="linkedin_1_" data-name="linkedin (1)" xmlns="http://www.w3.org/2000/svg" width="32.12" height="32.12" viewBox="0 0 32.12 32.12">
  <path id="Path_4" data-name="Path 4" d="M29.24,29.557h.008V17.776c0-5.763-1.241-10.2-7.978-10.2a6.994,6.994,0,0,0-6.3,3.462h-.094V8.112H8.489V29.556H15.14V18.938c0-2.8.53-5.5,3.992-5.5,3.411,0,3.462,3.191,3.462,5.678v10.44Z" transform="translate(2.872 2.563)" fill="#fff"/>
  <path id="Path_5" data-name="Path 5" d="M.4,7.977H7.055V29.421H.4Z" transform="translate(0.134 2.699)" fill="#fff"/>
  <path id="Path_6" data-name="Path 6" d="M3.857,0A3.875,3.875,0,1,0,7.714,3.857,3.858,3.858,0,0,0,3.857,0Z" fill="#fff"/>
</svg>
