<svg xmlns="http://www.w3.org/2000/svg" width="247.506" height="137.974" viewBox="0 0 247.506 137.974">
    <path id="Path_37" data-name="Path 37" d="M12.389,80.724c0,3.051-2.094,4.495-5.241,4.495H.69V70.4H6.758c3.209,0,4.789,1.177,4.789,3.818a2.805,2.805,0,0,1-2.436,2.949,3.421,3.421,0,0,1,3.27,3.558m-9.311-8.1v3.66h3.25c1.922,0,2.928-.41,2.928-1.916-.089-1.662-1.2-1.772-2.8-1.772Zm6.842,8.052c0-1.505-.958-2.244-2.9-2.244H3.071v4.556H6.977c1.943,0,2.9-.759,2.9-2.312" transform="translate(-0.218 -22.236)" fill="#fff"/>
    <path id="Path_38" data-name="Path 38" d="M20.5,77.633a7.526,7.526,0,0,1,7.765-7.745,7.751,7.751,0,1,1,0,15.5A7.567,7.567,0,0,1,20.5,77.633m13.095,0a5.2,5.2,0,0,0-5.33-5.521,5.5,5.5,0,0,0,0,10.994,5.189,5.189,0,0,0,5.33-5.473" transform="translate(-6.473 -22.073)" fill="#fff"/>
    <path id="Path_39" data-name="Path 39" d="M49.929,70.4H52.44l6.506,14.819H56.176l-2.251-5.412L51.2,73.349l-2.743,6.458L46.2,85.219H43.43Z" transform="translate(-13.717 -22.236)" fill="#fff"/>
    <path id="Path_40" data-name="Path 40" d="M66.618,77.606A7.779,7.779,0,1,1,74.4,85.358a7.526,7.526,0,0,1-7.786-7.751m13.088,0a5.325,5.325,0,1,0-5.323,5.473,5.2,5.2,0,0,0,5.323-5.473" transform="translate(-21.04 -22.046)" fill="#fff"/>
    <path id="Path_41" data-name="Path 41" d="M91,82.988h1.444A61.7,61.7,0,0,0,93.6,70.4h10.166V82.988h1.792v4.926h-2.381V85.178H93.347v2.737H91Zm10.385,0V72.623H96.008a64.781,64.781,0,0,1-1.115,10.365Z" transform="translate(-28.742 -22.236)" fill="#fff"/>
    <path id="Path_42" data-name="Path 42" d="M116.85,70.4H119.2V81.641L126.866,70.4h2.572V85.219h-2.353V73.78L119.4,85.219H116.85Z" transform="translate(-36.907 -22.236)" fill="#fff"/>
    <path id="Path_43" data-name="Path 43" d="M140.99,70.4h2.771l4.276,6.588v.021l4.3-6.609h2.771V85.219h-2.36V73.978l-3.619,5.5h-2.162l-3.619-5.5V85.219h-2.36Z" transform="translate(-44.531 -22.236)" fill="#fff"/>
    <path id="Path_44" data-name="Path 44" d="M167.37,70.4h2.353V81.641L177.386,70.4h2.572V85.219H177.6V73.78l-7.683,11.439H167.37Z" transform="translate(-52.864 -22.236)" fill="#fff"/>
    <path id="Path_45" data-name="Path 45" d="M203.712,75.264c0,2.928-2.292,4.871-5.3,4.871H193.9v5.083H191.52V70.4h6.958c2.969,0,5.241,1.943,5.241,4.864m-2.442.048a2.771,2.771,0,0,0-2.969-2.689H193.9v5.33h4.406a2.752,2.752,0,0,0,2.969-2.641" transform="translate(-60.491 -22.236)" fill="#fff"/>
    <path id="Path_46" data-name="Path 46" d="M12.542,111.193c0,3.086-2.114,4.536-5.282,4.536H.72V100.78H6.877c3.236,0,4.864,1.184,4.864,3.852a2.819,2.819,0,0,1-2.49,2.969,3.421,3.421,0,0,1,3.291,3.592m-9.421-8.169v3.722H6.385c1.943,0,2.956-.417,2.956-1.936-.089-1.676-1.211-1.786-2.819-1.786Zm6.842,8.128c0-1.519-.971-2.271-2.928-2.271H3.121v4.6H7.069c1.957,0,2.928-.773,2.928-2.333" transform="translate(-0.227 -31.831)" fill="#fff"/>
    <path id="Path_47" data-name="Path 47" d="M21,108.078a7.642,7.642,0,0,1,7.84-7.82,7.82,7.82,0,1,1,0,15.633A7.635,7.635,0,0,1,21,108.078m13.218,0a5.233,5.233,0,0,0-5.377-5.569,5.562,5.562,0,0,0,0,11.117,5.243,5.243,0,0,0,5.377-5.548" transform="translate(-6.632 -31.665)" fill="#fff"/>
    <path id="Path_48" data-name="Path 48" d="M50.921,100.78h2.538l6.561,14.949h-2.8l-2.271-5.46-2.75-6.52-2.771,6.52-2.271,5.46h-2.8Z" transform="translate(-14.011 -31.831)" fill="#fff"/>
    <path id="Path_49" data-name="Path 49" d="M71.08,100.78h2.374v11.336l7.731-11.336h2.6v14.949H81.4V104.194l-7.751,11.535H71.08Z" transform="translate(-22.45 -31.831)" fill="#fff"/>
    <path id="Path_50" data-name="Path 50" d="M108.275,100.78v14.949h-2.4V108.88H98.1v6.848H95.7V100.78h2.4v5.856h7.772V100.78Z" transform="translate(-30.227 -31.831)" fill="#fff"/>
    <path id="Path_51" data-name="Path 51" d="M118.68,108.078c-.068-4.276,3.346-7.881,8.258-7.82a8.579,8.579,0,0,1,4.844,1.32v2.538a7.943,7.943,0,0,0-4.844-1.608,5.563,5.563,0,1,0,0,11.117,8.47,8.47,0,0,0,5.261-1.649v2.572a8.973,8.973,0,0,1-5.261,1.368,7.778,7.778,0,0,1-8.258-7.813" transform="translate(-37.484 -31.665)" fill="#fff"/>
    <path id="Path_52" data-name="Path 52" d="M143,100.78h2.4v5.966h4.1c3.127,0,5.288,1.3,5.288,4.447s-2.34,4.536-5.288,4.536H143Zm6.342,12.7c1.238,0,2.928-.328,2.928-2.333s-1.69-2.271-2.928-2.271H145.36v4.6Z" transform="translate(-45.166 -31.831)" fill="#fff"/>
    <path id="Path_53" data-name="Path 53" d="M164.74,100.78H167.2v6.205l6.937-6.205h3.216l-7.642,6.889,8.189,8.059h-3.236l-7.464-7.2v7.2H164.74Z" transform="translate(-52.033 -31.831)" fill="#fff"/>
    <path id="Path_54" data-name="Path 54" d="M191.82,100.78h2.36l6.65,14.949h-2.778l-1.43-3.544H189.4l-1.43,3.544h-2.8Zm3.879,9.161-2.689-6.369-2.737,6.369Z" transform="translate(-58.486 -31.831)" fill="#fff"/>
    <path id="Path_55" data-name="Path 55" d="M0,137.01H9.072v11.241H7.279V138.7H1.786v9.551H0Z" transform="translate(0 -43.274)" fill="#fff"/>
    <path id="Path_56" data-name="Path 56" d="M20.781,138.7H16.84v-1.69h9.667v1.69H22.566v9.551H20.781Z" transform="translate(-5.319 -43.274)" fill="#fff"/>
    <path id="Path_57" data-name="Path 57" d="M34.707,137h1.772l5,11.241H39.4l-1.074-2.668H32.914l-1.074,2.668h-2.1Zm2.914,6.889L35.6,139.1l-2.052,4.789Z" transform="translate(-9.393 -43.271)" fill="#fff"/>
    <path id="Path_58" data-name="Path 58" d="M52.885,142.326l-4.009-5.316h2.189l2.88,4.009,2.942-4.009h2.189l-4.057,5.33,4.351,5.911H57.189L53.946,143.8l-3.127,4.454H48.63Z" transform="translate(-15.36 -43.274)" fill="#fff"/>
    <path id="Path_59" data-name="Path 59" d="M65.159,142.472a5.9,5.9,0,1,1,5.891,5.877,5.726,5.726,0,0,1-5.891-5.877m9.927,0a3.941,3.941,0,0,0-4.036-4.187,4.18,4.18,0,0,0,0,8.36,3.918,3.918,0,0,0,4.036-4.173" transform="translate(-20.58 -43.126)" fill="#fff"/>
    <path id="Path_60" data-name="Path 60" d="M89.941,148.3a5.911,5.911,0,1,1,1.69,0v1.868h-1.69Zm0-9.934a4.235,4.235,0,0,0,0,8.21Zm4.885,4.1a3.934,3.934,0,0,0-3.195-4.1v8.21a3.941,3.941,0,0,0,3.195-4.1" transform="translate(-26.808 -43.126)" fill="#fff"/>
    <path id="Path_61" data-name="Path 61" d="M107.611,137h1.772l4.994,11.241h-2.1l-1.074-2.668h-5.412l-1.081,2.668h-2.1Zm2.908,6.889-2.052-4.789-2.052,4.789Z" transform="translate(-32.409 -43.271)" fill="#fff"/>
    <path id="Path_62" data-name="Path 62" d="M122.93,137h7.4v1.69H124.7v2.8h3.133c2.347,0,3.968.978,3.968,3.345s-1.751,3.421-3.968,3.421H122.93Zm4.789,9.578c.93,0,2.2-.246,2.2-1.751s-1.273-1.7-2.2-1.7h-3v3.455Z" transform="translate(-38.827 -43.271)" fill="#fff"/>
    <path id="Path_63" data-name="Path 63" d="M148.73,140.7a3.718,3.718,0,0,1-4.023,3.688h-3.421v3.859H139.48V137h5.282a3.7,3.7,0,0,1,3.975,3.694m-1.854.034a2.1,2.1,0,0,0-2.251-2.052h-3.346v4.036h3.339a2.052,2.052,0,0,0,2.251-2" transform="translate(-44.055 -43.271)" fill="#fff"/>
    <path id="Path_64" data-name="Path 64" d="M156.81,137.01H158.6v8.525l5.808-8.525h1.95v11.241h-1.786v-8.675l-5.822,8.675H156.81Z" transform="translate(-49.528 -43.274)" fill="#fff"/>
    <path id="Path_65" data-name="Path 65" d="M175.56,137.01h1.854v4.666l5.213-4.666h2.415l-5.74,5.179,6.151,6.062h-2.429l-5.61-5.412v5.412H175.56Z" transform="translate(-55.45 -43.274)" fill="#fff"/>
    <path id="Path_66" data-name="Path 66" d="M196.161,137h1.772l4.994,11.241h-2.1l-1.074-2.668h-5.412l-1.074,2.668H191.16Zm2.914,6.889-2.018-4.789L195,143.889Z" transform="translate(-60.378 -43.271)" fill="#fff"/>
    <path id="Path_67" data-name="Path 67" d="M216.14,132.253c9.434-10.837,13.136-21.311,13.5-35.473.123-4.748.075-8.08,0-13.17h-13.5Z" transform="translate(-68.267 -26.408)" fill="#fff"/>
    <path id="Path_68" data-name="Path 68" d="M288.106,49.191,281.2,59.8c2.531,1.69,4.447,2.86,6.246,4.187,10.338,7.621,14.839,18.007,13.327,30.6s-11.083,23.542-23.206,26.135c-15.4,3.284-29.35,2.737-45.222,3.8-.075-1,.048-1.943,0-2.853q12.821-19.649,25.628-39.311c8.894-13.628,18.13-27.031,26.47-40.981C294.379,24.753,285.465,0,266.979,0H215.894V53.843h13.457c-.089-12.4,0-27.024,0-40.119,9.941,0,18.821.1,27.913,0,6.4-.068,12.014,1.006,15.243,7.19s.8,11.418-2.661,16.714c-16.488,25.019-32.538,50.326-49.375,75.106-5.473,8.087-5.7,16.1-4.556,24.712,20.477,0,40.509,1.416,60.246-.39,20.894-1.909,36.889-20.2,39.079-40.68,2.224-20.716-8.579-39.8-27.113-47.172" transform="translate(-68.021)" fill="#fff"/>
</svg>
